{
  "totalCount": 513,
  "totalPage": 103,
  "currentPage": 1,
  "pageSize": 5,
  "list": [
    {
      "rid": 1,
      "rname": "【旅展 半价特惠 重走丝路•漫游宁夏 双飞4天】银川西部影视城 穆民新村 中卫沙坡头【品美酒 回族学唱花儿 感悟民俗】",
      "price": 999.0,
      "routeIntroduce": "走进【宁夏沙坡头】，感受西北大漠风情、体会“大漠孤烟直，长河落日圆”的塞上风光！",
      "rflag": "1",
      "rdate": "2018-02-09 01:13:16",
      "isThemeTour": "0",
      "count": 0,
      "cid": 5,
      "rimage": "img/product/small/m304b69a4c8328f7d6b8d5dadef020fe07.jpg",
      "sid": 1,
      "sourceId": "23677",
      "category": null,
      "seller": null,
      "routeImgList": null
    },
    {
      "rid": 2,
      "rname": "【官网专享 立减¥500 张家界天门山+大峡谷+凤凰古城+玻璃栈道+玻璃桥 高铁4天 无自费5钻】印象鲵宴-赶年宴+2晚蓝湾博格酒店",
      "price": 1799.0,
      "routeIntroduce": "官网专线，顶级品质！全程超豪华住宿，2晚入住超豪华铂金-蓝湾博格国际酒店，独家尊享金马VIP贵宾专用楼层。",
      "rflag": "1",
      "rdate": "2018-02-09 01:13:17",
      "isThemeTour": "0",
      "count": 990,
      "cid": 5,
      "rimage": "img/product/small/m34866f055de8630e94e25c40f277a79ba.jpg",
      "sid": 1,
      "sourceId": "22066",
      "category": null,
      "seller": null,
      "routeImgList": null
    },
    {
      "rid": 3,
      "rname": "【官网专享 5折预售 越南下龙湾+河内+芒街 高铁4天 高级团】双导游服务 免收服务小费【越超值·美食越南】",
      "price": 1199.0,
      "routeIntroduce": "双导游服务，免收服务小费，周全照顾贴心服务随心出游！品尝越南特色国宝美食，升级一餐越式炸鸡火锅宴！",
      "rflag": "1",
      "rdate": "2018-02-09 01:13:17",
      "isThemeTour": "0",
      "count": 0,
      "cid": 5,
      "rimage": "img/product/small/m3db4d2277b5df3d98597f79082ef92d6d.jpg",
      "sid": 1,
      "sourceId": "21998",
      "category": null,
      "seller": null,
      "routeImgList": null
    },
    {
      "rid": 4,
      "rname": "【官网专享 送箱 ¥1099秒杀 华东五市+乌镇+南浔 双飞6天 南京进上海出】升级1晚豪华酒店 漫步西湖【水墨江南】",
      "price": 1099.0,
      "routeIntroduce": "升级入住1晚豪华酒店；畅玩江南两大经典水乡——乌镇水乡和南浔水乡，体验这里的历史文化底蕴、清丽婉约的水乡古镇风貌。",
      "rflag": "1",
      "rdate": "2018-02-09 01:13:17",
      "isThemeTour": "0",
      "count": 0,
      "cid": 5,
      "rimage": "img/product/small/m3d91ef60e0c7fdeee97a4e2d3e5a42e84.jpg",
      "sid": 1,
      "sourceId": "21943",
      "category": null,
      "seller": null,
      "routeImgList": null
    },
    {
      "rid": 5,
      "rname": "梅州 双飞3天2晚 自由行套票【含广州直飞梅州早对晚含税往返机票+2晚梅州市区酒店】",
      "price": 999.0,
      "routeIntroduce": "含广州直飞梅州早对晚含税往返机票+2晚梅州市区酒店！",
      "rflag": "1",
      "rdate": "2018-02-09 01:13:17",
      "isThemeTour": "0",
      "count": 0,
      "cid": 5,
      "rimage": "img/product/small/m3ac1aa10b493b4b22221e19ba39f7e6a1.jpg",
      "sid": 1,
      "sourceId": "21917",
      "category": null,
      "seller": null,
      "routeImgList": null
    }
  ]
}